{
  "activeViewId" : "a89b38dd-530e-4a3f-820f-6360072fccec",
  "appPageId" : "281f6251-64bd-4600-818f-8aeca71e7b2f",
  "id" : "d4991069-e4cc-4ced-b3ee-18550dd0279d",
  "label" : "File List",
  "routeType" : "list-069",
  "type" : "route",
  "urlPrefix" : "contentdocument"
}