{
  "activeViewId" : "07fcefcc-cdac-483a-918e-ea989463d29f",
  "appPageId" : "281f6251-64bd-4600-818f-8aeca71e7b2f",
  "id" : "0060bd33-723a-4956-a4fd-b5a416479419",
  "label" : "Related Record List",
  "routeType" : "relatedlist",
  "type" : "route",
  "urlPrefix" : "relatedlist"
}