{
  "appPageId" : "281f6251-64bd-4600-818f-8aeca71e7b2f",
  "componentName" : "siteforce:sldsOneColLayout",
  "id" : "b25be54f-298e-4bbc-9cbc-8f23ee21e046",
  "label" : "Search",
  "regions" : [ {
    "id" : "909f3302-3a6b-477f-b2ec-81c5126b3490",
    "regionName" : "header",
    "type" : "region"
  }, {
    "components" : [ {
      "componentAttributes" : {
        "scopes" : [ {
          "name" : "Knowledge__kav",
          "isPublic" : true
        } ],
        "searchResultFiltering" : false,
        "searchTerm" : "{!term}",
        "showTopResults" : true
      },
      "componentName" : "forceCommunity:search",
      "id" : "3acb75c2-e8a3-4bcf-ad64-d2cc0783c817",
      "renderPriority" : "NEUTRAL",
      "renditionMap" : { },
      "type" : "component"
    } ],
    "id" : "e0027334-94f8-4194-a594-a3c1689248f8",
    "regionName" : "content",
    "type" : "region"
  }, {
    "id" : "a934241a-ccdc-4ec6-91eb-e3537e4a182e",
    "regionName" : "footer",
    "type" : "region"
  } ],
  "themeLayoutType" : "Inner",
  "type" : "view",
  "viewType" : "global-search"
}