{
  "appPageId" : "281f6251-64bd-4600-818f-8aeca71e7b2f",
  "componentName" : "siteforce:sldsOneColLayout",
  "id" : "68b92db3-453c-41b6-9d4e-989fc042304b",
  "label" : "Topic Catalog",
  "regions" : [ {
    "components" : [ {
      "componentAttributes" : {
        "bannerText" : "",
        "bannerTextWithKnowledge" : "Explore other <a href=\"javascript:void(0)\" class=\"headlineArticles\">articles</a> and <a href=\"javascript:void(0)\" class=\"headlineDiscussions\">discussions</a> on this topic.",
        "bannerTextWithoutKnowledge" : "Explore other <a href=\"javascript:void(0)\" class=\"headlineDiscussions\">discussions</a> on this topic.",
        "pageType" : "",
        "showSubTopics" : true,
        "title" : "Topics",
        "uniqueNameOrId" : ""
      },
      "componentName" : "forceCommunity:headline",
      "id" : "86e6c8e5-7f5a-400e-aebb-ee0e2e6bfa34",
      "renderPriority" : "NEUTRAL",
      "renditionMap" : { },
      "type" : "component"
    } ],
    "id" : "ea48a680-1302-48b6-b97a-69e5cf1c86f2",
    "regionName" : "header",
    "type" : "region"
  }, {
    "components" : [ {
      "componentAttributes" : { },
      "componentName" : "forceCommunity:topicCatalog",
      "id" : "fe9437e9-b30e-4ddc-965c-c15e53b04265",
      "renderPriority" : "NEUTRAL",
      "renditionMap" : { },
      "type" : "component"
    } ],
    "id" : "c9a5abca-23f1-4196-9180-5f572de8a165",
    "regionName" : "content",
    "type" : "region"
  }, {
    "id" : "a0d4043e-3ac9-41a5-b55c-589f31d37133",
    "regionName" : "footer",
    "type" : "region"
  }, {
    "components" : [ {
      "componentAttributes" : {
        "description" : "",
        "metaTags" : "",
        "title" : "Topic Catalog"
      },
      "componentName" : "forceCommunity:seoAssistant",
      "id" : "f4c6c317-509c-42eb-8eb2-079ae943de35",
      "renditionMap" : { },
      "type" : "component"
    } ],
    "id" : "296c3238-22e2-42d4-a257-37c4d9fb7ee6",
    "regionName" : "sfdcHiddenRegion",
    "type" : "region"
  } ],
  "themeLayoutType" : "Inner",
  "type" : "view",
  "viewType" : "topic-catalog"
}